List available providers — db_providers • dbnomics
…
    Arguments

provider_code
character(1) code of the provider

    Value

    A data.frame() with the available providers.

    Examples

# \donttest{
db_providers()
#> # A tibble: 92 × 7
#>    code  indexed_at               name         region slug  terms_of_use website
#>    <chr> <chr>                    <chr>        <chr>  <chr> <chr>        <chr>  
#>  1 ACOSS 2024-02-21T04:02:56.149Z Agence cent… FRANCE acoss https://www… https:…
#>  2 AFDB  2023-02-22T15:37:20.879Z African Dev… Africa afdb  https://www… https:…
#>  3 AIH   2023-03-17T07:59:19.500Z Africa Info… AFRICA aih   https://www… https:…
#>  4 AMECO 2025-02-24T01:21:33.138Z Annual macr… EU     ameco https://ec.… https:…
#>  5 Apple 2023-02-21T17:46:38.181Z Apple        World  apple https://cov… https:…
#>  6 AQICN 2023-02-21T09:39:08.392Z The World A… World  aqicn https://aqi… https:…
#>  7 BCB   2025-02-24T01:22:28.457Z Banco Centr… BR     bcb   NA           http:/…
#>  8 BCEAO 2025-02-24T01:22:28.666Z Banque Cent… West … bceao http://www.… http:/…
#>  9 BDF   2025-02-24T06:02:46.153Z Banque de F… FR     bdf   https://web… https:…
#> 10 BEA   2025-02-21T12:21:54.653Z U.S. Bureau… US     bea   https://bea… http:/…
#> # ℹ 82 more rows
…
